<svg xmlns="http://www.w3.org/2000/svg" width="17.387" height="14.405" viewBox="0 0 17.387 14.405">
  <path id="angle-double-right-solid_1_" data-name="angle-double-right-solid (1)" d="M33.455,103.917l-5.932,6.12a1.02,1.02,0,0,1-1.479,0l-.986-1.017a1.1,1.1,0,0,1,0-1.526l4.205-4.338-4.205-4.338a1.1,1.1,0,0,1,0-1.526l.981-1.026a1.02,1.02,0,0,1,1.479,0l5.932,6.12A1.1,1.1,0,0,1,33.455,103.917Zm8.375-1.53L35.9,96.267a1.02,1.02,0,0,0-1.479,0l-.986,1.017a1.1,1.1,0,0,0,0,1.526l4.205,4.338-4.205,4.338a1.1,1.1,0,0,0,0,1.526l.986,1.017a1.02,1.02,0,0,0,1.479,0l5.932-6.12a1.094,1.094,0,0,0,0-1.521Z" transform="translate(-24.75 -95.95)" fill="#fff"/>
</svg>
