<svg id="presentation_1_" data-name="presentation (1)" xmlns="http://www.w3.org/2000/svg" width="55.708" height="48.72" viewBox="0 0 55.708 48.72">
  <path id="Path_27" data-name="Path 27" d="M50.58,0H26.106a5.134,5.134,0,0,0-5.128,5.128v15.7l-4.544-2.26c-.153-.077-.309-.149-.467-.217a7.75,7.75,0,1,0-10.693.474A10.329,10.329,0,0,0,0,27.854V33.1a5.137,5.137,0,0,0,3.5,4.862v9.123a1.632,1.632,0,0,0,1.632,1.632H15.617a1.632,1.632,0,0,0,1.632-1.632V28.746l5.225,2.612a4.478,4.478,0,0,0,5.939-1.872h5.852l-6.2,17.04a1.632,1.632,0,0,0,3.068,1.116l6.6-18.155h1.144l6.669,18.16a1.632,1.632,0,0,0,3.064-1.125L42.359,29.486H50.58a5.128,5.128,0,0,0,5.128-5.128V5.128A5.128,5.128,0,0,0,50.58,0ZM5.887,13a4.486,4.486,0,1,1,4.486,4.486A4.491,4.491,0,0,1,5.887,13ZM25.624,27.741l-.012.037a1.207,1.207,0,0,1-1.677.661c-3.1-1.553-7.588-3.793-7.588-3.793a1.633,1.633,0,0,0-2.361,1.46V45.452H6.76V36.595a1.633,1.633,0,0,0-1.632-1.632A1.866,1.866,0,0,1,3.264,33.1V27.854a7.11,7.11,0,0,1,7.108-7.108h1.442a7.112,7.112,0,0,1,3.163.744s8.1,4.026,10.157,5.053A.979.979,0,0,1,25.624,27.741Zm26.82-3.383a1.851,1.851,0,0,1-.545,1.318,1.876,1.876,0,0,1-1.319.546H28.768c0-.009-.005-.018-.008-.026l4.05-8.1a1.632,1.632,0,0,0-2.919-1.46l-3.455,6.909-2.194-1.092V5.128a1.866,1.866,0,0,1,1.864-1.864H50.58a1.875,1.875,0,0,1,1.319.547,1.849,1.849,0,0,1,.545,1.318Zm0,0" fill="#e40037"/>
  <path id="Path_28" data-name="Path 28" d="M276.18,64.266H258.7a1.632,1.632,0,0,0,0,3.264H276.18a1.632,1.632,0,1,0,0-3.264Zm0,0" transform="translate(-229.096 -57.273)" fill="#e40037"/>
  <path id="Path_29" data-name="Path 29" d="M347.771,120.5H339.03a1.632,1.632,0,0,0,0,3.264h8.741a1.632,1.632,0,0,0,0-3.264Zm0,0" transform="translate(-300.688 -107.389)" fill="#e40037"/>
  <path id="Path_30" data-name="Path 30" d="M347.771,176.734H339.03a1.632,1.632,0,0,0,0,3.264h8.741a1.632,1.632,0,0,0,0-3.264Zm0,0" transform="translate(-300.688 -157.505)" fill="#e40037"/>
</svg>
